[
    {
        "_id": "1",
        "userID": "1",
        "courseID": "1",
        "totalAmount": 400,
        "isPaid": true,
        "paymentMethod": "GCash",
        "dateTimeCreated": "2020-03-15T15:00:00Z"
    },
    {
        "_id": "2",
        "userID": "1",
        "courseID": "2",
        "totalAmount": 400,
        "isPaid": true,
        "paymentMethod": "GCash",
        "dateTimeCreated": "2020-03-15T15:00:00Z"
    }
]